C:\USERS\ADMINISTRATOR\DOWNLOADS\EXPLODING-TEAPOT-OPENGL-MASTER\EXPLODING-TEAPOT-OPENGL-MASTER\DEBUG\CAMERA.OBJ
C:\USERS\ADMINISTRATOR\DOWNLOADS\EXPLODING-TEAPOT-OPENGL-MASTER\EXPLODING-TEAPOT-OPENGL-MASTER\DEBUG\CAMERAVIEW.OBJ
C:\Users\Administrator\Downloads\Exploding-Teapot-OpenGL-master\Exploding-Teapot-OpenGL-master\Debug\cl.command.1.tlog
C:\Users\Administrator\Downloads\Exploding-Teapot-OpenGL-master\Exploding-Teapot-OpenGL-master\Debug\CL.read.1.tlog
C:\Users\Administrator\Downloads\Exploding-Teapot-OpenGL-master\Exploding-Teapot-OpenGL-master\Debug\CL.write.1.tlog
C:\USERS\ADMINISTRATOR\DOWNLOADS\EXPLODING-TEAPOT-OPENGL-MASTER\EXPLODING-TEAPOT-OPENGL-MASTER\DEBUG\EXPLODING-TEAPOT.EXE
C:\USERS\ADMINISTRATOR\DOWNLOADS\EXPLODING-TEAPOT-OPENGL-MASTER\EXPLODING-TEAPOT-OPENGL-MASTER\DEBUG\EXPLODING-TEAPOT.EXE.EMBED.MANIFEST
C:\USERS\ADMINISTRATOR\DOWNLOADS\EXPLODING-TEAPOT-OPENGL-MASTER\EXPLODING-TEAPOT-OPENGL-MASTER\DEBUG\EXPLODING-TEAPOT.EXE.EMBED.MANIFEST.RES
C:\USERS\ADMINISTRATOR\DOWNLOADS\EXPLODING-TEAPOT-OPENGL-MASTER\EXPLODING-TEAPOT-OPENGL-MASTER\DEBUG\EXPLODING-TEAPOT.EXE.INTERMEDIATE.MANIFEST
C:\USERS\ADMINISTRATOR\DOWNLOADS\EXPLODING-TEAPOT-OPENGL-MASTER\EXPLODING-TEAPOT-OPENGL-MASTER\DEBUG\EXPLODING-TEAPOT.ILK
C:\USERS\ADMINISTRATOR\DOWNLOADS\EXPLODING-TEAPOT-OPENGL-MASTER\EXPLODING-TEAPOT-OPENGL-MASTER\DEBUG\EXPLODING-TEAPOT.PDB
C:\Users\Administrator\Downloads\Exploding-Teapot-OpenGL-master\Exploding-Teapot-OpenGL-master\Debug\Exploding-Teapot_manifest.rc
C:\Users\Administrator\Downloads\Exploding-Teapot-OpenGL-master\Exploding-Teapot-OpenGL-master\Debug\link.6664.read.1.tlog
C:\Users\Administrator\Downloads\Exploding-Teapot-OpenGL-master\Exploding-Teapot-OpenGL-master\Debug\link.6664.write.1.tlog
C:\Users\Administrator\Downloads\Exploding-Teapot-OpenGL-master\Exploding-Teapot-OpenGL-master\Debug\link.6664-cvtres.read.1.tlog
C:\Users\Administrator\Downloads\Exploding-Teapot-OpenGL-master\Exploding-Teapot-OpenGL-master\Debug\link.6664-cvtres.write.1.tlog
C:\Users\Administrator\Downloads\Exploding-Teapot-OpenGL-master\Exploding-Teapot-OpenGL-master\Debug\link.command.1.tlog
C:\Users\Administrator\Downloads\Exploding-Teapot-OpenGL-master\Exploding-Teapot-OpenGL-master\Debug\link.read.1.tlog
C:\Users\Administrator\Downloads\Exploding-Teapot-OpenGL-master\Exploding-Teapot-OpenGL-master\Debug\link.write.1.tlog
C:\Users\Administrator\Downloads\Exploding-Teapot-OpenGL-master\Exploding-Teapot-OpenGL-master\Debug\link-cvtres.read.1.tlog
C:\Users\Administrator\Downloads\Exploding-Teapot-OpenGL-master\Exploding-Teapot-OpenGL-master\Debug\link-cvtres.write.1.tlog
C:\USERS\ADMINISTRATOR\DOWNLOADS\EXPLODING-TEAPOT-OPENGL-MASTER\EXPLODING-TEAPOT-OPENGL-MASTER\DEBUG\MAIN.OBJ
C:\USERS\ADMINISTRATOR\DOWNLOADS\EXPLODING-TEAPOT-OPENGL-MASTER\EXPLODING-TEAPOT-OPENGL-MASTER\DEBUG\MESH.OBJ
C:\Users\Administrator\Downloads\Exploding-Teapot-OpenGL-master\Exploding-Teapot-OpenGL-master\Debug\mt.command.1.tlog
C:\Users\Administrator\Downloads\Exploding-Teapot-OpenGL-master\Exploding-Teapot-OpenGL-master\Debug\mt.read.1.tlog
C:\Users\Administrator\Downloads\Exploding-Teapot-OpenGL-master\Exploding-Teapot-OpenGL-master\Debug\mt.write.1.tlog
C:\USERS\ADMINISTRATOR\DOWNLOADS\EXPLODING-TEAPOT-OPENGL-MASTER\EXPLODING-TEAPOT-OPENGL-MASTER\DEBUG\NORMAL.OBJ
C:\Users\Administrator\Downloads\Exploding-Teapot-OpenGL-master\Exploding-Teapot-OpenGL-master\Debug\rc.command.1.tlog
C:\Users\Administrator\Downloads\Exploding-Teapot-OpenGL-master\Exploding-Teapot-OpenGL-master\Debug\rc.read.1.tlog
C:\Users\Administrator\Downloads\Exploding-Teapot-OpenGL-master\Exploding-Teapot-OpenGL-master\Debug\rc.write.1.tlog
C:\USERS\ADMINISTRATOR\DOWNLOADS\EXPLODING-TEAPOT-OPENGL-MASTER\EXPLODING-TEAPOT-OPENGL-MASTER\DEBUG\SHAPE.OBJ
C:\Users\Administrator\Downloads\Exploding-Teapot-OpenGL-master\Exploding-Teapot-OpenGL-master\Debug\vc100.idb
C:\USERS\ADMINISTRATOR\DOWNLOADS\EXPLODING-TEAPOT-OPENGL-MASTER\EXPLODING-TEAPOT-OPENGL-MASTER\DEBUG\VC100.PDB
